# Blender MTL File: 'testing_glasses_2.blend'
# Material Count: 4

newmtl occluder_mat
Ns 86.274510
Ka 0.000000 0.000000 0.000000
Kd 0.224870 0.026352 0.000000
Ks 0.500000 0.500000 0.500000
Ni 1.000000
d 1.000000
illum 2

newmtl phong1SG
Ns 13.725490
Ka 0.000000 0.000000 0.000000
Kd 0.563200 0.563200 0.115200
Ks 0.250000 0.250000 0.250000
Ni 1.000000
d 1.000000
illum 2

newmtl phong2SG
Ns 13.725490
Ka 0.000000 0.000000 0.000000
Kd 0.153600 0.153600 0.153600
Ks 0.250000 0.250000 0.250000
Ni 1.000000
d 1.000000
illum 2

newmtl phong3SG
Ns 13.725490
Ka 0.000000 0.000000 0.000000
Kd 0.339200 0.640000 0.640000
Ks 0.250000 0.250000 0.250000
Ni 1.000000
d 0.082000
illum 2
